[
  "Задержка мочи",
  "Импотенция",
  "Частое мочеиспускание",
  "Позывы к мочеиспускание ночью",
  "Струя мочи слабая, прерывистая, без напора",
  "Ощущение неполного опорожнения мочевого пузыря",
  "При наполненном мочевом пузыре может быть недержание мочи",
  "Необходимость тужится при мочеиспускании",
  "Боль в пояснице",
  "Боль внизу живота у женщин",
  "Боль во время полового акта",
  "Вздутие живота",
  "Выделения из влагалища",
  "Нарушение менструального цикла",
  "Озноб",
  "Повышение температуры",
  "Слабость",
  "Тошнота",
  "Нарушение мочеиспускания",
  "Угнетенное психоэмоциональное состояние",
  "Акне",
  "Отсутствие менструации",
  "Сухость влагалища",
  "Увеличение веса",
  "Утрата фертильности",
  "Повышенная жирность кожи",
  "Анальный зуд",
  "Боль в прямой кишке",
  "Боль при дефекации",
  "Кровь в кале",
  "Спазм",
  "Брадикардия",
  "Быстрая утомляемость",
  "Головокружение",
  "Одышка",
  "Стенокардия",
  "Тахикардия",
  "Нарушение ритма сердца",
  "Боль в области сердца",
  "Повышение артериального давления",
  "Удушье",
  "Нарушение памяти",
  "Забывание слов",
  "Трудности с пониманием речи и текста",
  "Трудности письма",
  "Потеря ориентации в чужих и знакомых местах",
  "Потеря оценки времени",
  "Трудности при совершении обычных действий",
  "Изменение личности",
  "Депрессия",
  "Недержание мочи",
  "Потливость",
  "Тремор в состоянии покоя",
  "Скованность в ногах",
  "Нарушение сна",
  "Потеря обоняния",
  "Психические расстройства",
  "Слюнотечение",
  "Ригидность мышц",
  "Поза просителя",
  "Боль в правом боку",
  "Диарея",
  "Жажда",
  "Обесцвечивание кала",
  "Отрыжка",
  "Отсутствие аппетита",
  "Тяжесть в правом подреберье",
  "Дискомфорт в животе",
  "Потемнение мочи",
  "Желтушность кожи и склер",
  "Рвота",
  "Запор",
  "Недержание кала",
  "Ощущение инородного тела в анусе",
  "Головная боль",
  "Заложенность носа",
  "Насморк",
  "Боль, которая отдает в глаз",
  "Изжога",
  "Налет на языке",
  "Неприятный привкус во рту",
  "Снижение веса",
  "Боль в животе",
  "Тяжесть в желудке",
  "Геморроидальные узлы",
  "Жжение в прямой кишке",
  "Боль в правом подреберье",
  "Увеличение печени",
  "Нарушение стула",
  "Кровь в моче",
  "Отеки",
  "Снижение интеллекта",
  "Снижение памяти",
  "Сложность в составлении планов, логических цепочек",
  "Дезориентированность в пространстве",
  "Рассеянность",
  "Неряшливость",
  "Бессонница",
  "Нарушение речи",
  "Возможны галлюцинации",
  "Жжение во влагалище",
  "Зуд во влагалище",
  "Посторонний запах",
  "Появление остроконечных кондилом",
  "Но чаще всего дисплазия может не давать о себе знать и выявляется при осмотре",
  "Желчная колика",
  "Светлый стул",
  "Нарушение гормонального фона",
  "Безусловный симптом — отсутствие беременности на протяжении 1 года регулярной половой жизни без использования средств контрацепции",
  "Частичная или полная потеря сознания",
  "Невозможность поднять обе руки одновременно",
  "Зрительные расстройства",
  "Нарушение чувствительности конечностей",
  "Асимметрия лица",
  "Бледность кожных покровов",
  "Боль за грудиной",
  "Обморок",
  "Чувство страха",
  "Ухудшение зрения",
  "Нарушение координации",
  "Изменение артериального давления",
  "Боль в левой руке",
  "Кашель",
  "Похолодание конечностей",
  "Боль в молочной железе",
  "Воспаление лимфоузлов",
  "Покраснение молочной железы",
  "Уплотнение в молочной железе",
  "Нагрубание молочных желез перед менструацией",
  "Проблемы с зачатием",
  "Обильные маточные кровотечения",
  "Асимметрия живота",
  "Боль в горле",
  "Боль в мышцах",
  "Жар",
  "Мокрота",
  "Сыпь",
  "Тремор",
  "Отек влагалища",
  "Отек молочной железы",
  "\"Лающий\" кашель",
  "Покраснение в горле",
  "Осиплость голоса",
  "Отечность и нагрубание молочных желез",
  "Ощущение тяжести в молочной железе",
  "Напряженность молочной железы",
  "Наличие узлов и тяжей",
  "Светобоязнь",
  "Чувствительность к шуму",
  "Цианоз",
  "Чувство сдавленности органов таза",
  "Бесплодие",
  "Боль при мочеиспускании",
  "Почечная колика",
  "Боль",
  "Слезотечение",
  "Гиперемия лица",
  "Онемение лица",
  "Слюноотделение",
  "Резь в глазах",
  "Боль в ушах",
  "Снижение слуха",
  "Боль в левом подреберье",
  "\"Опоясывающая\" боль",
  "Сухость во рту",
  "Кашицеобразный стул с остатками непереваренной пищи",
  "Болезненная менструация",
  "Кровотечения после полового акта или после физической нагрузки",
  "Выделения из заднего прохода",
  "Кишечное кровотечение",
  "Уменьшение количества мочи",
  "Холодный пот",
  "Боль в паху",
  "Втягивание соска",
  "Деформация молочной железы",
  "Наличие плотного образования в молочной железе",
  "Желтушность склер и кожи",
  "Асцит",
  "Анемия",
  "Онемение конечностей",
  "Снижение зрения",
  "Гипертонус мышц",
  "Шаткость при ходьбе",
  "Заложенность в ушах",
  "Отсутствие свободного носового хода",
  "Частое чихание",
  "Сухость в носу",
  "Жжение в носу",
  "Полное отсутствие обоняния",
  "Нарушения работы кишечника",
  "Затруднение дыхания через нос",
  "Боль над пораженной пазухой носа",
  "Отечность носа",
  "Покраснение горла",
  "Затрудненное дыхание",
  "Горечь во рту",
  "Гнойные пробки на миндалинах",
  "Нарушение пищеварения",
  "Ощущение \"замирания\" сердца",
  "Кровянистые выделения из влагалища",
  "Обильная менструация",
  "Затруднённое дыхание",
  "Конвульсии",
  "Закатывание глаз",
  "Атония мышц",
  "Иногда эрозия шейки матки может протекать бессимптомно",
  "Жгучая боль в области желудка"
]
